Introducción a R para RRHH
…
--

Luego, hago un `group_by` y uso `summarise` y `arrange` para responder el ejercicio.

```r
hr_data %>% 
  select(RecruitmentSource, PerfScoreID) %>% 
  group_by(RecruitmentSource) %>% 
  summarise(performance_promedio = mean(PerfScoreID)) %>% 
  arrange(-performance_promedio)
```

```
## # A tibble: 23 x 2
##    RecruitmentSource                      performance_promedio
##    <chr>                                                 <dbl>
##  1 Information Session                                    3.25
##  2 Employee Referral                                      3.16
##  3 Other                                                  3.11
##  4 Social Networks - Facebook Twitter etc                 3.09
##  5 On-campus Recruiting                                   3.08
##  6 MBTA ads                                               3.06
##  7 Careerbuilder                                          3   
##  8 Company Intranet - Partner                             3   
##  9 Diversity Job Fair                                     3   
## 10 Glassdoor                                              3   
## # ... with 13 more rows
```
…
